Class,Colour,minMass,maxMass,Probability
O,Blue,16,31,0.0000003
B,Blue White,2.1,16,0.0013
A,White,1.4,2.1,0.006
F,Yellow White,1.04,1.4,0.03
G,Yellow,0.8,1.04,0.076
K,Orange,0.45,0.8,0.121
M,Red,0.08,0.45,0.7645
