Class,Base_Habitability,Inner_Prob,HZ_Prob,Outer_Prob,Habitability,Atm_Chance,Atm_Primary,Atm_Secondary,Atm_Trace
Dead,10,25,6,34,10,0,,,
Glassed,10,3,1,0.05,10,10,"Ammonia,Carbon Dioxide","Ammonia,Carbon Monoxide,Water Vapour","Argon,Neon"
Toxic,15,15,6,0,10,100,"Ammonia,Carbon Dioxide,Sulfur Dioxide","Carbon Monoxide,Nitrogen,Water Vapour","Argon,Neon,Water Vapour"
Frozen,20,0,6,31.9,20,50,"Ammonia,Carbon Dioxide,Nitrogen","Nitrogen,Oxygen,Water Vapour","Argon,Neon,Water Vapour"
Molten,20,30,6,0,20,50,"Carbon Dioxide,Nitrogen","Carbon Monoxide,Sulfur Dioxide","Argon,Neon"
Barren,25,27,10,34,20,50,"Carbon Dioxide,Nitrogen","Carbon Dioxide,Nitrogen","Helium,Hydrogen,Oxygen"
Tomb,25,0,1,0.05,20,70,"Nitrogen,Ozone","Oxygen, Ozone","Argon,Neon"
Desert,50,0,14,0,80,100,Nitrogen,Oxygen,"Argon,Neon,Water Vapour"
Ocean,50,0,14,0,80,100,Nitrogen,Oxygen,"Argon,Neon,Water Vapour"
Tundra,50,0,14,0,80,100,Nitrogen,Oxygen,"Argon,Neon,Water Vapour"
Lush,80,0,7,0,100,100,Nitrogen,Oxygen,"Argon,Neon,Water Vapour"
Savanna,80,0,7,0,100,100,Nitrogen,Oxygen,"Argon,Neon,Water Vapour"
Temperate,80,0,7,0,100,100,Nitrogen,Oxygen,"Argon,Neon,Water Vapour"
Gaia,100,0,1,0,200,100,Nitrogen,Oxygen,"Argon,Neon,Water Vapour"
